^C:\USERS\USER\DOCUMENTS\VISUAL STUDIO 2013\PROJECTS\MFCAPPLICATION1\MFCAPPLICATION1\STDAFX.CPP
/c /Zi /nologo /W3 /WX- /sdl /Od /D WIN32 /D _WINDOWS /D _DEBUG /D _UNICODE /D UNICODE /Gm /EHsc /RTC1 /MTd /GS /fp:precise /Zc:wchar_t /Zc:forScope /Yc"stdafx.h" /Fp"X64\DEBUG\MFCAPPLICATION1.PCH" /Fo"X64\DEBUG\\" /Fd"X64\DEBUG\VC120.PDB" /Gd /TP C:\USERS\USER\DOCUMENTS\VISUAL STUDIO 2013\PROJECTS\MFCAPPLICATION1\MFCAPPLICATION1\STDAFX.CPP
^C:\USERS\USER\DOCUMENTS\VISUAL STUDIO 2013\PROJECTS\MFCAPPLICATION1\MFCAPPLICATION1\MFCAPPLICATION1.CPP
/c /Zi /nologo /W3 /WX- /sdl /Od /D WIN32 /D _WINDOWS /D _DEBUG /D _UNICODE /D UNICODE /Gm /EHsc /RTC1 /MTd /GS /fp:precise /Zc:wchar_t /Zc:forScope /Yu"stdafx.h" /Fp"X64\DEBUG\MFCAPPLICATION1.PCH" /Fo"X64\DEBUG\\" /Fd"X64\DEBUG\VC120.PDB" /Gd /TP C:\USERS\USER\DOCUMENTS\VISUAL STUDIO 2013\PROJECTS\MFCAPPLICATION1\MFCAPPLICATION1\MFCAPPLICATION1.CPP
^C:\USERS\USER\DOCUMENTS\VISUAL STUDIO 2013\PROJECTS\MFCAPPLICATION1\MFCAPPLICATION1\MFCAPPLICATION1DLG.CPP
/c /Zi /nologo /W3 /WX- /sdl /Od /D WIN32 /D _WINDOWS /D _DEBUG /D _UNICODE /D UNICODE /Gm /EHsc /RTC1 /MTd /GS /fp:precise /Zc:wchar_t /Zc:forScope /Yu"stdafx.h" /Fp"X64\DEBUG\MFCAPPLICATION1.PCH" /Fo"X64\DEBUG\\" /Fd"X64\DEBUG\VC120.PDB" /Gd /TP C:\USERS\USER\DOCUMENTS\VISUAL STUDIO 2013\PROJECTS\MFCAPPLICATION1\MFCAPPLICATION1\MFCAPPLICATION1DLG.CPP
